v 20191008 2
C 32200 47900 1 180 1 diode-bridge-1.sym
{
T 33700 46325 5 10 1 1 180 6 1
refdes=VD3
T 33100 46925 5 8 1 1 180 6 1
device=B6S
T 32200 47900 5 10 0 0 180 6 1
footprint=TO269AA
}
C 32200 46100 1 0 1 connector2-2.sym
{
T 31500 47400 5 10 1 1 0 0 1
refdes=XS1
T 31900 47350 5 10 0 0 0 6 1
device=CONNECTOR_2
T 31900 47550 5 10 0 0 0 6 1
footprint=ED350V-02P
}
C 36400 47700 1 180 0 MMBT2907A.sym
{
T 35800 46400 5 10 0 0 180 0 1
device=MMBT2907A
T 35500 47200 5 10 1 1 180 0 1
refdes=VT1
T 35800 46000 5 10 0 0 180 0 1
footprint=SOT23
}
C 35900 45600 1 90 0 resistor-2.sym
{
T 35550 46000 5 10 0 0 90 0 1
device=RESISTOR
T 35600 45900 5 10 1 1 90 0 1
refdes=R3
T 36100 45900 5 10 1 1 90 0 1
value=220
T 35900 45600 5 10 0 1 0 0 1
footprint=0805
}
C 35900 44500 1 90 0 resistor-2.sym
{
T 35550 44900 5 10 0 0 90 0 1
device=RESISTOR
T 35600 44800 5 10 1 1 90 0 1
refdes=R4
T 36100 44800 5 10 1 1 90 0 1
value=100
T 35900 44500 5 10 0 1 0 0 1
footprint=0805
}
C 36000 47800 1 0 0 resistor-2.sym
{
T 36400 48150 5 10 0 0 0 0 1
device=RESISTOR
T 36300 48100 5 10 1 1 0 0 1
refdes=R5
T 36300 47600 5 10 1 1 0 0 1
value=330
T 36000 47800 5 10 0 1 0 0 1
footprint=0805
}
N 32200 46500 32200 45400 4
N 32200 45400 34200 45400 4
N 34200 45400 34200 46900 4
N 35800 46700 35800 46500 4
N 35800 45400 35800 45600 4
N 34900 46000 34900 46600 4
N 34900 46600 35800 46600 4
N 35800 45500 36500 45500 4
N 36500 42800 36500 44600 4
N 36500 45500 36500 45000 4
N 36400 47200 37100 47200 4
N 37100 47000 37100 47900 4
N 35800 47700 35800 47900 4
N 33200 47900 36000 47900 4
N 36900 47900 37300 47900 4
N 37500 47000 37500 47200 4
N 37500 47200 38800 47200 4
C 37700 46300 1 0 0 resistor-2.sym
{
T 38100 46650 5 10 0 0 0 0 1
device=RESISTOR
T 38000 46600 5 10 1 1 0 0 1
refdes=R7
T 38000 46100 5 10 1 1 0 0 1
value=1K
T 37700 46300 5 10 0 1 0 0 1
footprint=0603
}
N 37500 46600 37500 46400 4
N 37500 46400 37700 46400 4
C 37400 43300 1 90 0 resistor-2.sym
{
T 37050 43700 5 10 0 0 90 0 1
device=RESISTOR
T 37100 43600 5 10 1 1 90 0 1
refdes=R6
T 37600 43600 5 10 1 1 90 0 1
value=1K
T 37400 43300 5 10 0 1 0 0 1
footprint=0603
}
C 37200 43000 1 0 0 gnd-1.sym
N 36900 44400 38600 44400 4
N 36900 44400 36900 44600 4
N 37300 44200 37300 44400 4
N 36900 45000 36900 45200 4
N 36900 45200 38800 45200 4
N 34900 44300 34900 45100 4
C 37600 46600 1 0 1 ps2501-1.sym
{
T 37500 47100 5 6 0 1 0 6 1
device=TLP291GB
T 37900 46900 5 10 1 1 0 6 1
refdes=U3
T 37600 46600 5 10 0 1 0 0 1
footprint=so(4)
}
C 36400 44600 1 0 0 ps2501-1.sym
{
T 36500 45100 5 6 0 1 0 0 1
device=TLP291GB
T 37000 44900 5 10 1 1 0 0 1
refdes=U2
T 36400 44600 5 10 0 1 0 0 1
footprint=so(4)
}
C 35100 45100 1 90 0 bx84.sym
{
T 34500 45500 5 10 0 0 90 0 1
device=BX84-Cxxx
T 35200 45900 5 10 0 1 90 0 1
footprint=SOT23
T 34600 45400 5 10 1 1 90 0 1
refdes=VD4
T 35300 45400 5 10 1 1 90 0 1
value=4V7
}
C 37300 45700 1 90 0 bx84.sym
{
T 36700 46100 5 10 0 0 90 0 1
device=BX84-Cxxx
T 36800 46000 5 10 1 1 90 0 1
refdes=VD5
T 37400 46500 5 10 0 1 90 0 1
footprint=SOT23
T 37500 45900 5 10 1 1 90 0 1
value=4V3
}
C 38200 47700 1 0 1 bx84.sym
{
T 37800 48300 5 10 0 0 0 6 1
device=BX84-Cxxx
T 37900 48200 5 10 1 1 0 6 1
refdes=VD6
T 37400 47600 5 10 0 1 0 6 1
footprint=SOT23
T 37500 47500 5 10 1 1 0 0 1
value=15V0
}
C 39400 46300 1 0 1 input-1.sym
{
T 39400 46600 5 10 0 0 0 6 1
device=INPUT
T 38900 46600 5 10 1 1 0 0 1
net=OTO:1
}
C 38600 44300 1 0 0 output-1.sym
{
T 38700 44600 5 10 0 0 0 0 1
device=OUTPUT
T 38900 44600 5 10 1 1 0 0 1
net=OTI:1
}
C 34000 49400 1 0 0 PM10MW.sym
{
T 34000 49400 5 10 0 1 0 0 1
device=HLK-PM01
T 34000 49400 5 10 0 1 0 0 1
footprint=HLK-PM01
T 34300 50300 5 10 1 1 0 0 1
refdes=U1
}
C 32200 50600 1 0 0 fuse-2.sym
{
T 32400 51150 5 10 0 1 0 0 1
device=FUSE
T 32400 51350 5 10 0 1 0 0 1
symversion=0.1
T 32200 50600 5 10 0 1 0 0 1
footprint=FH-102
T 32500 50400 5 10 1 1 0 0 1
refdes=F1
T 32400 50900 5 10 1 1 0 0 1
value=0.25А
}
C 32200 49400 1 0 1 header2-1.sym
{
T 31200 49650 5 10 0 0 0 6 1
device=CONNECTOR_2
T 32200 49400 5 10 0 0 0 0 1
footprint=ED500V-02P
T 31900 50300 5 10 1 1 0 6 1
refdes=XS2
}
C 35100 48800 1 0 0 gnd-1.sym
C 33400 49700 1 90 0 varistor-1.sym
{
T 33400 50500 5 10 1 1 270 0 1
device=S05K250
T 33400 49700 5 10 0 0 0 0 1
footprint=acy(200)
T 32900 50200 5 10 1 1 270 0 1
refdes=V1
}
N 33800 50000 33800 50700 4
N 33100 50700 33800 50700 4
N 33200 50600 33200 50700 4
N 33200 49700 33200 49600 4
N 33800 50000 34000 50000 4
N 32200 49600 34000 49600 4
N 32200 50000 32200 50700 4
T 31100 49800 9 10 1 0 0 4 1
~220V
N 35200 50000 40000 50000 4
C 42100 43200 1 0 1 header10-2.sym
{
T 42100 45200 5 10 0 1 0 6 1
device=HEADER10
T 42100 43200 5 10 0 1 0 0 1
footprint=connector(2,5,sequence=pivot)
T 41500 45300 5 10 1 1 0 6 1
refdes=XS5
}
N 40700 44600 40600 44600 4
N 40600 44600 40600 43400 4
N 40600 43400 40700 43400 4
N 40700 44200 40600 44200 4
N 40700 43800 40600 43800 4
C 48700 49400 1 0 0 gnd-1.sym
C 42200 52100 1 0 0 rf-antenna.sym
{
T 42600 52200 5 10 0 1 0 0 1
device=antenna
T 42200 52100 5 10 0 0 0 0 1
net=GND:1
T 42200 52600 5 10 1 1 0 0 1
refdes=ANT1
T 42200 52100 5 10 0 0 0 0 1
footprint=IFA
}
C 40500 43100 1 0 0 gnd-1.sym
N 40600 45000 40700 45000 4
C 49600 50400 1 0 1 LM1117-1.sym
{
T 49225 51750 5 10 0 1 0 6 1
device=LM1117
T 48500 51350 5 10 1 1 0 6 1
refdes=U8
T 49325 52650 5 10 0 0 0 6 1
footprint=SOT223-3
}
C 47800 50700 1 270 0 capacitor-2.sym
{
T 48500 50500 5 10 0 0 270 0 1
device=POLARIZED_CAPACITOR
T 48700 50500 5 10 0 0 270 0 1
symversion=0.1
T 47800 50700 5 10 0 1 0 0 1
footprint=TANT_B
T 47900 49800 5 10 1 1 90 0 1
refdes=C12
T 47900 50400 5 10 1 1 90 0 1
value=100 uF
}
N 44900 51200 48000 51200 4
N 48000 50700 48000 51200 4
N 48800 49700 48800 50400 4
N 46700 49700 48800 49700 4
N 48000 49800 48000 49700 4
C 41100 48300 1 0 0 rak439.sym
{
T 43400 49700 5 10 0 1 0 0 1
footprint=rak439
T 42700 50000 5 10 1 1 0 0 1
device=RAK439
T 42900 50300 5 10 1 1 0 0 1
refdes=U5
}
C 47600 49800 1 90 0 capacitor-1.sym
{
T 46900 50000 5 10 0 0 90 0 1
device=CAPACITOR
T 46700 50000 5 10 0 0 90 0 1
symversion=0.1
T 47600 49800 5 10 0 0 0 0 1
footprint=0603
T 47200 49800 5 10 1 1 90 0 1
refdes=C11
T 47200 50400 5 10 1 1 90 0 1
value=0.1 uF
}
N 47400 49800 47400 49700 4
N 47400 50700 47400 51200 4
C 46900 49800 1 90 0 capacitor-1.sym
{
T 46200 50000 5 10 0 0 90 0 1
device=CAPACITOR
T 46000 50000 5 10 0 0 90 0 1
symversion=0.1
T 46900 49800 5 10 0 1 0 0 1
footprint=0603
T 46400 49800 5 10 1 1 90 0 1
refdes=C9
T 46400 50200 5 10 1 1 90 0 1
value=10 uF
}
N 46700 49800 46700 49700 4
N 46700 50700 46700 50800 4
N 44900 50800 46700 50800 4
N 44900 50400 46100 50400 4
N 45300 49600 44900 49600 4
N 45700 50000 44900 50000 4
N 44000 47000 44000 48300 4
C 40800 50300 1 270 0 gnd-1.sym
C 42900 52400 1 180 0 gnd-1.sym
C 40900 52200 1 0 0 resistor-2.sym
{
T 41300 52550 5 10 0 0 0 0 1
device=RESISTOR
T 40900 52200 5 10 0 1 0 0 1
footprint=0603
T 41200 52500 5 10 1 1 0 0 1
refdes=R8
T 41200 52000 5 10 1 1 0 0 1
value=10K
}
N 41800 52300 42000 52300 4
N 42000 52300 42000 52100 4
C 40600 51800 1 0 0 gnd-1.sym
N 40900 52300 40700 52300 4
N 40700 52300 40700 52100 4
C 46800 44100 1 0 0 TXB0108RGYR.sym
{
T 47700 45400 5 10 0 1 0 0 1
footprint=RGY20
T 47900 47000 5 10 1 1 0 0 1
refdes=U7
T 47600 46300 5 10 1 1 0 0 1
device=TXB0108
}
N 48300 49000 48300 48300 4
N 47700 48300 47700 49000 4
N 46800 47800 46800 48400 4
C 46800 48800 1 0 0 capacitor-1.sym
{
T 47000 49500 5 10 0 0 0 0 1
device=CAPACITOR
T 47000 49700 5 10 0 0 0 0 1
symversion=0.1
T 46800 48800 5 10 0 1 0 0 1
footprint=0603
T 46900 49200 5 10 1 1 0 0 1
refdes=C10
T 47000 48600 5 10 1 1 0 0 1
value=0.1 uF
}
C 46500 49100 1 270 0 gnd-1.sym
N 46800 48400 47700 48400 4
N 46100 50400 46100 46600 4
N 43300 46600 46800 46600 4
N 45700 50000 45700 47400 4
N 43300 47400 46800 47400 4
N 45300 49600 45300 45400 4
N 45300 45400 46800 45400 4
N 43300 45800 46800 45800 4
N 43300 47000 46800 47000 4
N 43600 45800 43600 48300 4
N 46800 46200 44900 46200 4
N 44900 46200 44900 48800 4
T 43600 43200 8 10 0 0 0 0 1
netname=MOSI
N 40600 45000 40600 45100 4
C 42100 44900 1 0 0 io-1.sym
{
T 43000 44900 5 10 1 1 0 0 1
net=MOSI:1
T 42300 45500 5 10 0 0 0 0 1
device=none
}
C 42100 43700 1 0 0 io-1.sym
{
T 43000 43700 5 10 1 1 0 0 1
net=SCK:1
T 42300 44300 5 10 0 0 0 0 1
device=none
}
C 42100 43300 1 0 0 io-1.sym
{
T 43000 43300 5 10 1 1 0 0 1
net=MISO:1
T 42300 43900 5 10 0 0 0 0 1
device=none
}
C 42100 44100 1 0 0 output-1.sym
{
T 42200 44400 5 10 0 0 0 0 1
device=OUTPUT
T 43000 44100 5 10 1 1 0 0 1
net=\_RESET\_:1
}
N 49600 51000 49800 51000 4
N 49800 51000 49800 51200 4
C 47200 51200 1 0 0 3.3V-plus-1.sym
C 47500 49000 1 0 0 3.3V-plus-1.sym
C 49200 48800 1 0 1 capacitor-1.sym
{
T 49000 49500 5 10 0 0 0 6 1
device=CAPACITOR
T 49000 49700 5 10 0 0 0 6 1
symversion=0.1
T 49200 48800 5 10 0 1 0 6 1
footprint=0603
T 49100 49200 5 10 1 1 0 6 1
refdes=C13
T 49000 48600 5 10 1 1 0 6 1
value=0.1 uF
}
C 49500 49100 1 90 1 gnd-1.sym
C 49200 47300 1 0 0 io-1.sym
{
T 50100 47300 5 10 1 1 0 0 1
net=MISOP:1
T 49400 47900 5 10 0 0 0 0 1
device=none
}
C 49200 46900 1 0 0 io-1.sym
{
T 50100 46900 5 10 1 1 0 0 1
net=MOSIP:1
T 49400 47500 5 10 0 0 0 0 1
device=none
}
C 49200 46500 1 0 0 io-1.sym
{
T 50100 46500 5 10 1 1 0 0 1
net=SCKP:1
T 49400 47100 5 10 0 0 0 0 1
device=none
}
C 50000 45700 1 0 1 input-1.sym
{
T 50000 46000 5 10 0 0 0 6 1
device=INPUT
T 50100 45700 5 10 1 1 0 0 1
net=\_RSTP\_:1
}
C 50000 46100 1 0 1 input-1.sym
{
T 50000 46400 5 10 0 0 0 6 1
device=INPUT
T 50100 46100 5 10 1 1 0 0 1
net=\_WLCS\_:1
}
C 49200 45300 1 0 0 output-1.sym
{
T 49300 45600 5 10 0 0 0 0 1
device=OUTPUT
T 50100 45300 5 10 1 1 0 0 1
net=\_WLIRQ\_:1
}
C 39200 49100 1 90 0 capacitor-1.sym
{
T 38500 49300 5 10 0 0 90 0 1
device=CAPACITOR
T 38700 49400 5 10 1 1 90 0 1
refdes=C5
T 38300 49300 5 10 0 0 90 0 1
symversion=0.1
T 39400 49400 5 10 1 1 90 0 1
value=0.1 uF
T 39200 49100 5 10 0 1 0 0 1
footprint=0603
}
C 38900 48800 1 0 0 gnd-1.sym
C 39800 50000 1 270 0 capacitor-2.sym
{
T 39700 49400 5 10 1 1 90 0 1
refdes=C7
T 40400 49300 5 10 1 1 90 0 1
value=100 uF
T 40500 49800 5 10 0 0 270 0 1
device=POLARIZED_CAPACITOR
T 40700 49800 5 10 0 0 270 0 1
symversion=0.1
T 39800 50000 5 10 0 0 0 0 1
footprint=TANT_B
}
C 39900 48800 1 0 0 gnd-1.sym
C 38200 49100 1 90 0 capacitor-1.sym
{
T 37500 49300 5 10 0 0 90 0 1
device=CAPACITOR
T 37700 49400 5 10 1 1 90 0 1
refdes=C3
T 37300 49300 5 10 0 0 90 0 1
symversion=0.1
T 38400 49400 5 10 1 1 90 0 1
value=0.1 uF
T 38200 49100 5 10 0 1 0 0 1
footprint=0603
}
C 37900 48800 1 0 0 gnd-1.sym
C 37200 49100 1 90 0 capacitor-1.sym
{
T 36500 49300 5 10 0 0 90 0 1
device=CAPACITOR
T 36700 49400 5 10 1 1 90 0 1
refdes=C2
T 36300 49300 5 10 0 0 90 0 1
symversion=0.1
T 37400 49400 5 10 1 1 90 0 1
value=0.1 uF
T 37200 49100 5 10 0 1 0 0 1
footprint=0603
}
C 36900 48800 1 0 0 gnd-1.sym
C 36200 49100 1 90 0 capacitor-1.sym
{
T 35500 49300 5 10 0 0 90 0 1
device=CAPACITOR
T 35700 49400 5 10 1 1 90 0 1
refdes=C1
T 35300 49300 5 10 0 0 90 0 1
symversion=0.1
T 36400 49400 5 10 1 1 90 0 1
value=0.1 uF
T 36200 49100 5 10 0 1 0 0 1
footprint=0603
}
C 35900 48800 1 0 0 gnd-1.sym
N 35200 49100 35200 49600 4
C 49300 37800 1 270 0 gnd-1.sym
C 49600 37500 1 0 0 header3-1.sym
{
T 50600 38150 5 10 0 0 0 0 1
device=HEADER3
T 49600 37500 5 10 0 0 0 0 1
footprint=connector(1,3)
T 50000 38800 5 10 1 1 0 0 1
refdes=XS7
}
C 49600 38000 1 0 1 io-1.sym
{
T 48700 38000 5 10 1 1 0 6 1
net=RXD:1
T 49400 38600 5 10 0 0 0 6 1
device=none
}
C 49600 38400 1 0 1 io-1.sym
{
T 48700 38400 5 10 1 1 0 6 1
net=TXD:1
T 49400 39000 5 10 0 0 0 6 1
device=none
}
C 51900 47600 1 0 0 capacitor-1.sym
{
T 52100 48300 5 10 0 1 0 0 1
device=CAPACITOR
T 52100 48500 5 10 0 1 0 0 1
symversion=0.1
T 51900 47600 5 10 0 1 0 0 1
footprint=0603
T 52000 47900 5 10 1 1 0 0 1
refdes=C16
T 52500 47900 5 10 1 1 0 0 1
value=20
}
C 51900 48300 1 0 0 capacitor-1.sym
{
T 52100 49000 5 10 0 1 0 0 1
device=0.1
T 52100 49200 5 10 0 1 0 0 1
symversion=0.1
T 51900 48300 5 10 0 1 0 0 1
footprint=0603
T 52000 48600 5 10 1 1 0 0 1
refdes=C15
T 52500 48600 5 10 1 1 0 0 1
value=20
}
N 51700 48500 51700 47800 4
N 53500 48200 53500 48500 4
N 53500 48500 52800 48500 4
N 53500 47800 52800 47800 4
N 51900 48500 51700 48500 4
N 51900 47800 51700 47800 4
N 53500 51400 53200 51400 4
{
T 53500 51400 5 10 0 0 0 0 1
netname=\_RESET\_
}
C 53500 41600 1 0 0 ATmega1284.sym
{
T 53800 49800 5 10 0 0 0 0 1
device=ATmega1284
T 53800 49600 5 10 0 0 0 0 1
footprint=qfn(44,7x7,0.5,cpad_size=5.2)
T 55800 47250 5 10 1 1 0 6 1
refdes=D1
T 53800 48900 5 10 0 1 0 0 1
net=Vcc:5,17,38
}
C 51600 47500 1 0 0 gnd-1.sym
C 52900 48500 1 270 0 crystal-3225.sym
{
T 53400 48300 5 10 0 0 270 0 1
device=CRYSTAL
T 53600 48300 5 10 0 0 270 0 1
symversion=0.1
T 52900 48500 5 10 0 0 0 0 1
footprint=OSC3225
T 53200 48100 5 10 1 1 0 0 1
refdes=G2
T 52700 47500 5 10 1 1 0 0 1
value=20MHz
}
C 38100 50500 1 0 1 inductor-1.sym
{
T 37900 51000 5 10 0 0 0 6 1
device=INDUCTOR
T 37900 51200 5 10 0 0 0 6 1
symversion=0.1
T 38100 50500 5 10 0 1 0 6 1
footprint=0805
T 37800 50800 5 10 1 1 0 6 1
refdes=L1
T 37900 50300 5 10 1 1 0 6 1
value=10 uH
}
C 38300 50800 1 180 1 capacitor-1.sym
{
T 38500 50100 5 10 0 0 180 6 1
device=CAPACITOR
T 38500 49900 5 10 0 0 180 6 1
symversion=0.1
T 38300 50800 5 10 0 1 90 2 1
footprint=0603
T 38900 50900 5 10 1 1 0 6 1
refdes=C6
T 39000 50200 5 10 1 1 0 6 1
value=0.1 uF
}
C 39500 50700 1 90 1 gnd-1.sym
N 38100 50600 38300 50600 4
N 37200 50600 37000 50600 4
N 37000 50600 37000 50000 4
C 38000 50800 1 0 0 generic-power.sym
{
T 38200 51050 5 10 0 1 0 3 1
net=AVcc:1
T 38000 51100 5 10 1 1 0 0 1
value=AVcc
}
N 38200 50800 38200 50600 4
C 53200 51300 1 0 1 output-1.sym
{
T 53100 51600 5 10 0 0 0 6 1
device=OUTPUT
T 52300 51300 5 10 1 1 0 6 1
net=\_RESET\_:1
}
C 53200 44900 1 0 1 io-1.sym
{
T 52300 44900 5 10 1 1 0 6 1
net=RXD:1
T 53000 45500 5 10 0 0 0 6 1
device=none
}
N 53200 45000 53500 45000 4
C 53200 44500 1 0 1 io-1.sym
{
T 52300 44500 5 10 1 1 0 6 1
net=TXD:1
T 53000 45100 5 10 0 0 0 6 1
device=none
}
N 53200 44600 53500 44600 4
C 53200 44100 1 0 1 io-1.sym
{
T 52300 44100 5 10 1 1 0 6 1
net=MISOP:1
T 53000 44700 5 10 0 0 0 6 1
device=none
}
N 53200 44200 53500 44200 4
C 53200 43700 1 0 1 io-1.sym
{
T 52300 43700 5 10 1 1 0 6 1
net=MOSIP:1
T 53000 44300 5 10 0 0 0 6 1
device=none
}
N 53200 43800 53500 43800 4
C 53200 43300 1 0 1 io-1.sym
{
T 52300 43300 5 10 1 1 0 6 1
net=SCKP:1
T 53000 43900 5 10 0 0 0 6 1
device=none
}
C 58100 43700 1 0 0 output-1.sym
{
T 58200 44000 5 10 0 0 0 0 1
device=OUTPUT
T 59000 43700 5 10 1 1 0 0 1
net=\_RSTP\_:1
}
N 53200 43400 53500 43400 4
N 58100 43800 57800 43800 4
C 58100 44100 1 0 0 output-1.sym
{
T 58200 44400 5 10 0 0 0 0 1
device=OUTPUT
T 59000 44100 5 10 1 1 0 0 1
net=\_WLCS\_:1
}
N 58100 44200 57800 44200 4
C 58900 43300 1 0 1 input-1.sym
{
T 58900 43600 5 10 0 0 0 6 1
device=INPUT
T 59000 43300 5 10 1 1 0 0 1
net=\_WLIRQ\_:1
}
N 58100 43400 57800 43400 4
C 58900 42900 1 0 1 input-1.sym
{
T 58900 43200 5 10 0 0 0 6 1
device=INPUT
T 59000 42900 5 10 1 1 0 0 1
net=SQW:1
}
N 58100 43000 57800 43000 4
C 58100 44500 1 0 0 io-1.sym
{
T 59000 44500 5 10 1 1 0 0 1
net=SDA:1
T 58300 45100 5 10 0 0 0 0 1
device=none
}
N 58100 44600 57800 44600 4
C 58100 44900 1 0 0 io-1.sym
{
T 59000 44900 5 10 1 1 0 0 1
net=SCL:1
T 58300 45500 5 10 0 0 0 0 1
device=none
}
N 58100 45000 57800 45000 4
C 58100 45300 1 0 0 io-1.sym
{
T 59000 45300 5 10 1 1 0 0 1
net=SCK:1
T 58300 45900 5 10 0 0 0 0 1
device=none
}
N 58100 45400 57800 45400 4
C 58100 45700 1 0 0 io-1.sym
{
T 59000 45700 5 10 1 1 0 0 1
net=MISO:1
T 58300 46300 5 10 0 0 0 0 1
device=none
}
N 58100 45800 57800 45800 4
C 58100 46100 1 0 0 io-1.sym
{
T 59000 46100 5 10 1 1 0 0 1
net=MOSI:1
T 58300 46700 5 10 0 0 0 0 1
device=none
}
N 58100 46200 57800 46200 4
C 58100 46500 1 0 0 output-1.sym
{
T 58200 46800 5 10 0 0 0 0 1
device=OUTPUT
T 59000 46500 5 10 1 1 0 0 1
net=RTS:1
}
N 58100 46600 57800 46600 4
C 60200 47700 1 90 0 gnd-1.sym
C 59900 47600 1 0 1 led-3.sym
{
T 58950 48250 5 10 0 0 0 6 1
device=LED
T 59900 47600 5 10 0 1 0 0 1
footprint=0805
T 59650 48150 5 10 1 1 0 6 1
refdes=VD7
}
C 58100 47700 1 0 0 resistor-2.sym
{
T 58500 48050 5 10 0 0 0 0 1
device=RESISTOR
T 58100 47700 5 10 0 1 0 0 1
footprint=0603
T 58200 48000 5 10 1 1 0 0 1
refdes=R14
T 58600 48000 5 10 1 1 0 0 1
value=1K
}
N 58100 47800 57800 47800 4
C 53200 42100 1 0 1 output-1.sym
{
T 53100 42400 5 10 0 0 0 6 1
device=OUTPUT
T 52300 42100 5 10 1 1 0 6 1
net=OTO:1
}
N 53200 42200 53500 42200 4
C 52400 42500 1 0 0 input-1.sym
{
T 52400 42800 5 10 0 0 0 0 1
device=INPUT
T 52300 42500 5 10 1 1 0 6 1
net=OTI:1
}
N 53200 42600 53500 42600 4
N 37100 40000 37100 40600 4
C 37200 39600 1 0 0 max485.sym
{
T 38850 41400 5 10 0 1 0 0 1
device=AD485
T 38850 41200 5 10 0 1 0 0 1
footprint=so(8)
T 38550 41150 5 10 1 1 0 0 1
refdes=U4
}
N 38000 41700 38000 41600 4
N 37100 40000 37200 40000 4
C 42000 39100 1 0 0 DS2482-100.sym
{
T 44900 40200 5 10 0 1 0 0 1
footprint=so(8)
T 43000 40900 5 8 1 1 0 0 1
refdes=U6
T 43100 40600 5 8 1 1 0 4 1
device=DS2482-100
}
N 43100 42200 43300 42200 4
N 42000 40000 41900 40000 4
N 41900 40000 41900 39600 4
N 41900 39600 42000 39600 4
C 41800 39300 1 0 0 gnd-1.sym
C 43000 38800 1 0 0 gnd-1.sym
N 33100 42000 34200 42000 4
{
T 33100 41600 5 10 0 1 0 0 1
netname=Vcc
}
C 33200 40900 1 90 0 resistor-2.sym
{
T 32850 41300 5 10 0 0 90 0 1
device=RESISTOR
T 33200 40900 5 10 0 1 0 0 1
footprint=0603
T 32900 41100 5 10 1 1 90 0 1
refdes=R1
T 32900 41500 5 10 1 1 90 0 1
value=10K
}
C 33800 40900 1 90 0 resistor-2.sym
{
T 33450 41300 5 10 0 0 90 0 1
device=RESISTOR
T 33800 40900 5 10 0 2 0 0 1
footprint=0603
T 33500 41100 5 10 1 1 90 0 1
refdes=R2
T 33500 41500 5 10 1 1 90 0 1
value=10K
}
N 33700 42000 33700 41800 4
N 33100 41800 33100 42000 4
N 33100 40900 33100 40700 4
N 33700 40900 33700 40300 4
C 43300 42000 1 0 0 capacitor-1.sym
{
T 43500 42700 5 10 0 0 0 0 1
device=CAPACITOR
T 43500 42900 5 10 0 0 0 0 1
symversion=0.1
T 43300 42000 5 10 0 1 0 0 1
footprint=0603
T 43300 42300 5 10 1 1 0 0 1
refdes=C8
T 43900 42300 5 10 1 1 0 0 1
value=0.1 uF
}
C 44500 42100 1 90 0 gnd-1.sym
C 38200 41500 1 0 0 capacitor-1.sym
{
T 38400 42200 5 10 0 0 0 0 1
device=CAPACITOR
T 38400 42400 5 10 0 0 0 0 1
symversion=0.1
T 38200 41500 5 10 0 1 0 0 1
footprint=0603
T 38300 41900 5 10 1 1 0 0 1
refdes=C4
T 38800 41900 5 10 1 1 0 0 1
value=0.1 uF
}
C 39400 41600 1 90 0 gnd-1.sym
N 38700 40200 38800 40200 4
N 44200 40000 44700 40000 4
C 37900 39300 1 0 0 gnd-1.sym
C 46900 39600 1 0 0 DS1307-1.sym
{
T 47200 42050 5 10 0 0 0 0 1
device=ds1307
T 47200 42250 5 10 0 0 0 0 1
footprint=so(8)
T 48600 41700 5 10 1 1 0 6 1
refdes=U9
}
C 46200 41100 1 0 0 crystal-1.sym
{
T 46400 41600 5 10 0 0 0 0 1
device=CRYSTAL
T 46400 41800 5 10 0 0 0 0 1
symversion=0.1
T 46200 41100 5 10 0 0 0 0 1
footprint=rcy(100,pol=none,dia=80)
T 46400 41400 5 10 1 1 0 0 1
refdes=G1
T 46300 40900 5 10 1 1 0 0 1
value=32.768
}
N 46200 41200 46200 40800 4
N 46200 40800 46900 40800 4
C 46900 40600 1 180 0 battery-1.sym
{
T 46600 39700 5 10 0 0 180 0 1
device=BATTERY
T 46600 39300 5 10 0 0 180 0 1
symversion=0.1
T 46900 40600 5 10 0 0 0 6 1
footprint=BU2032SM
T 46400 40700 5 10 1 1 180 0 1
refdes=B1
}
N 46200 40400 46200 40000 4
N 46200 40000 46900 40000 4
C 49400 41000 1 270 1 resistor-2.sym
{
T 49750 41400 5 10 0 0 90 2 1
device=RESISTOR
T 49400 41000 5 10 0 0 0 6 1
footprint=0603
T 49100 41300 5 10 1 1 90 2 1
refdes=R9
T 49700 41300 5 10 1 1 90 2 1
value=10K
}
N 49500 40800 49500 41000 4
N 48900 41200 49000 41200 4
N 49000 41200 49000 42000 4
N 49500 42000 49500 41900 4
C 46900 39700 1 0 1 gnd-1.sym
C 34100 38800 1 0 0 gnd-1.sym
C 36200 40500 1 0 0 input-1.sym
{
T 36200 40800 5 10 0 0 0 0 1
device=INPUT
T 36100 40500 5 10 1 1 0 6 1
net=RTS:1
}
N 37200 40600 37000 40600 4
C 37000 40800 1 0 1 io-1.sym
{
T 36100 40800 5 10 1 1 0 6 1
net=TXD:1
T 36800 41400 5 10 0 0 0 6 1
device=none
}
N 37200 40900 37000 40900 4
C 37000 40200 1 0 1 io-1.sym
{
T 36100 40200 5 10 1 1 0 6 1
net=RXD:1
T 36800 40800 5 10 0 0 0 6 1
device=none
}
N 37000 40300 37200 40300 4
N 38200 41700 38000 41700 4
C 39200 40000 1 0 0 connector2-2.sym
{
T 39900 41300 5 10 1 1 0 6 1
refdes=XS4
T 39500 41250 5 10 0 0 0 0 1
device=CONNECTOR_2
T 39500 41450 5 10 0 0 0 0 1
footprint=ED350V-02P
}
N 38800 40200 38800 40400 4
N 38700 40800 39200 40800 4
N 39200 40400 38800 40400 4
N 43100 42100 43100 42200 4
C 42000 41500 1 0 1 io-1.sym
{
T 41100 41500 5 10 1 1 0 6 1
net=SDA:1
T 41800 42100 5 10 0 0 0 6 1
device=none
}
C 42000 41100 1 0 1 io-1.sym
{
T 41100 41100 5 10 1 1 0 6 1
net=SCL:1
T 41800 41700 5 10 0 0 0 6 1
device=none
}
C 44700 39200 1 0 0 connector3-2.sym
{
T 45400 40900 5 10 1 1 0 6 1
refdes=XS6
T 45000 40850 5 10 0 0 0 0 1
device=CONNECTOR_3
T 45000 41050 5 10 0 0 0 0 1
footprint=ED350V-03P
}
C 44400 39100 1 0 0 gnd-1.sym
N 44700 40400 44500 40400 4
N 44500 40400 44500 40600 4
N 44700 39600 44500 39600 4
N 44500 39600 44500 39400 4
C 32900 40600 1 0 1 io-1.sym
{
T 32000 40600 5 10 1 1 0 6 1
net=SDA:1
T 32700 41200 5 10 0 0 0 6 1
device=none
}
C 32900 40200 1 0 1 io-1.sym
{
T 32000 40200 5 10 1 1 0 6 1
net=SCL:1
T 32700 40800 5 10 0 0 0 6 1
device=none
}
C 34400 39500 1 0 0 connector4-2.sym
{
T 35100 41600 5 10 1 1 0 6 1
refdes=XS3
T 34700 41550 5 10 0 0 0 0 1
device=CONNECTOR_4
T 34700 41750 5 10 0 0 0 0 1
footprint=ED350V-04P
}
N 34200 41100 34200 42000 4
N 32900 40700 34400 40700 4
N 32900 40300 34400 40300 4
N 34200 41100 34400 41100 4
N 34400 39900 34200 39900 4
N 34200 39900 34200 39100 4
N 49000 42000 49800 42000 4
C 49500 40700 1 0 0 output-1.sym
{
T 49600 41000 5 10 0 0 0 0 1
device=OUTPUT
T 50400 40700 5 10 1 1 0 0 1
net=SQW:1
}
N 48900 40800 49500 40800 4
C 49500 40300 1 0 0 io-1.sym
{
T 50400 40300 5 10 1 1 0 0 1
net=SCL:1
T 49700 40900 5 10 0 0 0 0 1
device=none
}
C 49500 39900 1 0 0 io-1.sym
{
T 50400 39900 5 10 1 1 0 0 1
net=SDA:1
T 49700 40500 5 10 0 0 0 0 1
device=none
}
N 49500 40400 48900 40400 4
N 49500 40000 48900 40000 4
C 54400 36900 1 0 0 lcd-ili9341.sym
{
T 56200 40600 5 10 1 1 0 0 1
refdes=LCD1
T 55100 40600 5 10 0 1 0 0 1
footprint=ili9341-18
T 55200 40900 5 10 0 1 0 0 1
device=ILI9341, 2.4"
}
C 54000 40500 1 0 0 3.3V-plus-1.sym
C 57000 40500 1 0 0 3.3V-plus-1.sym
N 54200 40500 54200 40300 4
N 54000 40300 54400 40300 4
N 57000 40300 57200 40300 4
N 57200 40300 57200 40500 4
C 57900 39000 1 0 1 resistor-2.sym
{
T 57500 39350 5 10 0 0 0 6 1
device=RESISTOR
T 57900 39000 5 10 0 1 0 6 1
footprint=0603
T 57400 38850 5 10 1 1 0 6 1
refdes=R12
T 57800 38850 5 10 1 1 0 6 1
value=10
}
C 57900 38600 1 0 1 resistor-2.sym
{
T 57500 38950 5 10 0 0 0 6 1
device=RESISTOR
T 57900 38600 5 10 0 1 0 6 1
footprint=0603
T 57400 38400 5 10 1 1 0 6 1
refdes=R13
T 57800 38400 5 10 1 1 0 6 1
value=10
}
C 57900 39400 1 0 1 resistor-2.sym
{
T 57500 39750 5 10 0 0 0 6 1
device=RESISTOR
T 57900 39400 5 10 0 1 0 6 1
footprint=0603
T 57400 39250 5 10 1 1 0 6 1
refdes=R11
T 57800 39250 5 10 1 1 0 6 1
value=10
}
C 57900 39800 1 0 1 resistor-2.sym
{
T 57500 40150 5 10 0 0 0 6 1
device=RESISTOR
T 57900 39800 5 10 0 1 0 6 1
footprint=0603
T 57400 39650 5 10 1 1 0 6 1
refdes=R10
T 57800 39650 5 10 1 1 0 6 1
value=10
}
N 57900 39900 58000 39900 4
N 58000 39900 58000 38700 4
N 58000 38700 57900 38700 4
N 57900 39100 58000 39100 4
N 57900 39500 58000 39500 4
C 58300 39200 1 90 1 gnd-1.sym
C 53600 39800 1 0 0 input-1.sym
{
T 53600 40100 5 10 0 0 0 0 1
device=INPUT
T 53500 39800 5 10 1 1 0 6 1
net=\_RSTP3V\_:1
}
C 53600 39400 1 0 0 input-1.sym
{
T 53600 39700 5 10 0 0 0 0 1
device=INPUT
T 53500 39400 5 10 1 1 0 6 1
net=\_DCS3V\_:1
}
C 53600 39000 1 0 0 input-1.sym
{
T 53600 39300 5 10 0 0 0 0 1
device=INPUT
T 53500 39000 5 10 1 1 0 6 1
net=DDC3V:1
}
C 54400 38200 1 0 1 io-1.sym
{
T 53500 38200 5 10 1 1 0 6 1
net=MISO3V:1
T 54200 38800 5 10 0 0 0 6 1
device=none
}
C 54400 38600 1 0 1 io-1.sym
{
T 53500 38600 5 10 1 1 0 6 1
net=MOSI3V:1
T 54200 39200 5 10 0 0 0 6 1
device=none
}
C 54400 37800 1 0 1 io-1.sym
{
T 53500 37800 5 10 1 1 0 6 1
net=SCK3V:1
T 54200 38400 5 10 0 0 0 6 1
device=none
}
N 54200 37500 54200 37100 4
N 54400 37500 54200 37500 4
N 54400 37100 54200 37100 4
C 54100 36800 1 0 0 gnd-1.sym
C 58100 47300 1 0 0 output-1.sym
{
T 58200 47600 5 10 0 0 0 0 1
device=OUTPUT
T 59000 47300 5 10 1 1 0 0 1
net=\_DCS\_:1
}
C 58100 46900 1 0 0 output-1.sym
{
T 58200 47200 5 10 0 0 0 0 1
device=OUTPUT
T 59000 46900 5 10 1 1 0 0 1
net=DDC:1
}
N 58100 47400 57800 47400 4
N 58100 47000 57800 47000 4
C 53100 40100 1 0 0 capacitor-1.sym
{
T 53300 40800 5 10 0 0 0 0 1
device=CAPACITOR
T 53100 40500 5 10 1 1 0 0 1
refdes=C17
T 53300 41000 5 10 0 0 0 0 1
symversion=0.1
T 53600 40500 5 10 1 1 0 0 1
value=10 uF
T 53100 40100 5 10 0 1 0 0 1
footprint=0603
}
C 52800 40400 1 270 0 gnd-1.sym
C 49800 41800 1 0 0 capacitor-1.sym
{
T 50000 42500 5 10 0 0 0 0 1
device=CAPACITOR
T 50000 42700 5 10 0 0 0 0 1
symversion=0.1
T 49800 41800 5 10 0 1 0 0 1
footprint=0603
T 49800 42100 5 10 1 1 0 0 1
refdes=C14
T 50400 42100 5 10 1 1 0 0 1
value=0.1 uF
}
C 51000 41900 1 90 0 gnd-1.sym
C 33300 39100 1 90 0 zener-1.sym
{
T 32700 39500 5 10 0 0 90 0 1
device=PESD5V0
T 33000 39800 5 10 1 1 90 0 1
refdes=VD1
T 33300 39100 5 10 0 1 0 0 1
footprint=SOD323-2
}
C 33900 39100 1 90 0 zener-1.sym
{
T 33300 39500 5 10 0 0 90 0 1
device=PESD5V0
T 33600 39800 5 10 1 1 90 0 1
refdes=VD2
T 33900 39100 5 10 0 1 0 0 1
footprint=SOD323-2
}
C 33000 38800 1 0 0 gnd-1.sym
C 33600 38800 1 0 0 gnd-1.sym
N 33100 40000 33100 40700 4
N 33700 40000 33700 40300 4
C 43300 47300 1 0 1 io-1.sym
{
T 42400 47300 5 10 1 1 0 6 1
net=MISO3V:1
T 43100 47900 5 10 0 0 0 6 1
device=none
}
C 43300 46900 1 0 1 io-1.sym
{
T 42400 46900 5 10 1 1 0 6 1
net=MOSI3V:1
T 43100 47500 5 10 0 0 0 6 1
device=none
}
C 43300 46500 1 0 1 io-1.sym
{
T 42400 46500 5 10 1 1 0 6 1
net=SCK3V:1
T 43100 47100 5 10 0 0 0 6 1
device=none
}
C 43300 45700 1 0 1 output-1.sym
{
T 43200 46000 5 10 0 0 0 6 1
device=OUTPUT
T 42400 45700 5 10 1 1 0 6 1
net=\_RSTP3V\_:1
}
C 50000 44900 1 0 1 input-1.sym
{
T 50000 45200 5 10 0 0 0 6 1
device=INPUT
T 50100 44900 5 10 1 1 0 0 1
net=\_DCS\_:1
}
C 50000 44500 1 0 1 input-1.sym
{
T 50000 44800 5 10 0 0 0 6 1
device=INPUT
T 50100 44500 5 10 1 1 0 0 1
net=DDC:1
}
C 46800 44900 1 0 1 output-1.sym
{
T 46700 45200 5 10 0 0 0 6 1
device=OUTPUT
T 45900 44900 5 10 1 1 0 6 1
net=\_DCS3V\_:1
}
C 46800 44500 1 0 1 output-1.sym
{
T 46700 44800 5 10 0 0 0 6 1
device=OUTPUT
T 45900 44500 5 10 1 1 0 6 1
net=DDC3V:1
}
C 35800 50000 1 0 0 vcc-1.sym
C 38600 47200 1 0 0 vcc-1.sym
C 38600 45200 1 0 0 vcc-1.sym
C 40400 45100 1 0 0 vcc-1.sym
C 32900 42000 1 0 0 vcc-1.sym
C 37800 41700 1 0 0 vcc-1.sym
C 42900 42200 1 0 0 vcc-1.sym
C 49300 42000 1 0 0 vcc-1.sym
C 49600 51200 1 0 0 vcc-1.sym
C 48100 49000 1 0 0 vcc-1.sym
C 44300 40600 1 0 0 vcc-1.sym
C 57100 36800 1 0 0 gnd-1.sym
N 57000 38300 57200 38300 4
N 57200 38300 57200 37100 4
N 57000 37900 57200 37900 4
N 57000 37500 57200 37500 4
N 57000 37100 57200 37100 4
N 47700 44100 47700 44000 4
N 47700 44000 48300 44000 4
N 48300 44000 48300 44100 4
C 47900 43700 1 0 0 gnd-1.sym
N 33200 44300 36500 44300 4
N 35800 44500 35800 44300 4
N 33200 45900 33200 44300 4
N 36500 42800 39700 42800 4
N 39700 42800 39700 47900 4
N 39700 47900 38200 47900 4
N 37100 45700 39700 45700 4
